<?xml version="1.0" encoding="UTF-8" standalone="no"?>
<!-- Created with Inkscape (http://www.inkscape.org/) -->

<svg
   xmlns:dc="http://purl.org/dc/elements/1.1/"
   xmlns:cc="http://creativecommons.org/ns#"
   xmlns:rdf="http://www.w3.org/1999/02/22-rdf-syntax-ns#"
   xmlns:svg="http://www.w3.org/2000/svg"
   xmlns="http://www.w3.org/2000/svg"
   xmlns:sodipodi="http://sodipodi.sourceforge.net/DTD/sodipodi-0.dtd"
   xmlns:inkscape="http://www.inkscape.org/namespaces/inkscape"
   version="1.1"
   id="svg2"
   width="267"
   height="267"
   viewBox="0 0 267 267"
   sodipodi:docname="face-icon.svg"
   inkscape:version="0.92.1 r15371">
  <metadata
     id="metadata8">
    <rdf:RDF>
      <cc:Work
         rdf:about="">
        <dc:format>image/svg+xml</dc:format>
        <dc:type
           rdf:resource="http://purl.org/dc/dcmitype/StillImage" />
        <dc:title></dc:title>
      </cc:Work>
    </rdf:RDF>
  </metadata>
  <defs
     id="defs6" />
  <sodipodi:namedview
     pagecolor="#ffffff"
     bordercolor="#666666"
     borderopacity="1"
     objecttolerance="10"
     gridtolerance="10"
     guidetolerance="10"
     inkscape:pageopacity="0"
     inkscape:pageshadow="2"
     inkscape:window-width="1366"
     inkscape:window-height="719"
     id="namedview4"
     showgrid="false"
     inkscape:zoom="0.62500824"
     inkscape:cx="-100.09635"
     inkscape:cy="-43.492755"
     inkscape:window-x="0"
     inkscape:window-y="0"
     inkscape:window-maximized="1"
     inkscape:current-layer="svg2" />
  <g
     id="g4493"
     transform="translate(94.398755,20.799726)"
     inkscape:export-filename="/home/arnes/workspace/face-recognition/res/face-icon.png"
     inkscape:export-xdpi="96"
     inkscape:export-ydpi="96">
    <path
       inkscape:connector-curvature="0"
       id="path4487"
       d="m -74.83284,221.67187 c 0.80637,-12.74356 2.21359,-17.05458 6.24784,-19.14024 1.55583,-0.80434 13.97953,-4.22254 27.60822,-7.59598 37.6465391,-9.31847 48.0949596,-13.73802 53.24193,-22.52066 4.37501,-7.46539 3.53861,-11.71522 -7.0018204,-35.57671 C -7.9511409,106.92325 -11.462131,93.392905 -11.446391,72.443795 -11.429591,50.073564 -7.0732209,37.753652 5.2409596,25.25158 16.70743,13.610155 31.3596,7.8959713 49.74378,7.8959713 c 18.57392,0 34.21452,6.1405217 45.108347,17.7095997 12.391223,13.159279 16.223953,24.254062 16.151903,46.755674 -0.0699,21.81956 -3.37115,34.428045 -16.945533,64.719355 -7.308707,16.30943 -7.765927,17.7489 -8.135297,25.61234 l -0.39136,8.33169 4.92971,4.75161 c 6.570517,6.33314 15.49435,9.9345 40.05085,16.1632 27.15904,6.88883 36.54973,9.80314 39.71118,12.32399 2.30727,1.83976 2.82988,3.24986 3.56781,9.62665 0.47551,4.10914 0.88433,10.05866 0.90848,13.22116 l 0.0439,5.75 H 49.60145 -75.54087 Z m 32.57662,-71.31063 v -17.5 h 6 6 v 12 12 h 10.5 10.4999991 v 5.5 5.5 h -16.4999991 -16.5 z m 151,12 v -5.5 h 10.5 10.5 v -12 -12 h 6 6 v 17.5 17.5 h -16.5 -16.5 z M -41.81339,27.572857 c -0.27192,-0.708614 -0.3703,-8.696114 -0.21862,-17.7500007 l 0.27579,-16.461614 16.25,-0.27477 16.2499991,-0.27477 v 6.02477 6.02477 h -10.4999991 -10.5 v 12.0000027 12 h -5.53138 c -3.59052,0 -5.70487,-0.452073 -6.02579,-1.288388 z M 129.74378,16.911149 V 4.8612423 h -10.5 -10.5 v -6.02477 -6.02477 l 16.25,0.27477 16.25,0.27477 v 17.5000027 17.5 l -5.75,0.299904 -5.75,0.299904 z"
       style="fill:#000000" />
    <rect
       y="-7.1635284"
       x="-110.39855"
       height="240"
       width="320"
       id="rect4489"
       style="fill:none;fill-opacity:1;stroke:none;stroke-width:1.40860903" />
  </g>
</svg>
